HoxD10	NW_015503911.1	96.043	834	33	0	1	834	16517488	16518321	0.0	1358
HoxD10	NW_015503911.1	89.892	1019	44	27	833	1843	16519683	16520650	0.0	1256
HoxD11 mRNA	NW_015503911.1	84.679	842	96	15	843	1659	16508092	16508925	0.0	809
HoxD11 mRNA	NW_015503911.1	83.314	857	97	30	2189	3013	16509397	16510239	0.0	749
HoxD11 mRNA	NW_015503911.1	92.674	273	20	0	1	273	16504990	16505262	4.00e-108	394
HoxD11 mRNA	NW_015503911.1	88.136	59	7	0	966	1024	16525450	16525508	7.66e-11	71.3
HoxD11 mRNA	NW_015503911.1	97.222	36	1	0	861	896	16525345	16525380	4.61e-08	62.1
HoxD12 mRNA	NW_015503911.1	81.944	648	109	5	3	643	16496257	16496903	8.61e-153	542
HoxD12 mRNA	NW_015503911.1	92.116	241	19	0	642	882	16497047	16497287	3.37e-92	340
HoxD13 mRNA	NW_015503911.1	76.512	1835	250	113	766	2483	16490674	16492444	0.0	833
HoxD13 mRNA	NW_015503911.1	88.298	564	58	5	208	770	16488949	16489505	0.0	669
HoxD1 mouse mRNA	NW_015503911.1	81.297	401	69	3	381	775	16596853	16597253	3.25e-86	320
HoxD3 (complete cds)	NW_015503911.1	85.445	1752	192	39	2460	4189	16577897	16579607	0.0	1764
HoxD3 (complete cds)	NW_015503911.1	82.531	1122	140	32	4623	5701	16580535	16581643	0.0	935
HoxD3 (complete cds)	NW_015503911.1	85.714	770	103	5	95	861	16575490	16576255	0.0	806
HoxD3 (complete cds)	NW_015503911.1	82.517	286	40	10	1767	2046	16577166	16577447	2.39e-62	243
HoxD3 (complete cds)	NW_015503911.1	85.232	237	27	7	5901	6133	16581799	16582031	1.11e-60	237
HoxD3 (complete cds)	NW_015503911.1	86.667	60	8	0	2713	2772	16558546	16558605	1.55e-09	67.6
HoxD4	NW_015503911.1	85.816	839	95	17	1661	2484	16558396	16559225	0.0	869
HoxD4	NW_015503911.1	85.119	672	77	14	869	1533	16556484	16557139	0.0	665
HoxD4	NW_015503911.1	96.774	155	3	1	1	155	16550870	16551022	3.53e-67	257
HoxD8, mRNA	NW_015503911.1	81.660	807	106	27	629	1424	16533502	16534277	2.77e-180	632
HoxD9 mRNA partial fragment	NW_015503911.1	93.952	248	15	0	1069	1316	16525306	16525553	7.65e-103	375
HoxD9 mRNA partial fragment	NW_015503911.1	81.908	304	40	7	1407	1697	16525599	16525900	8.09e-63	243
HoxD9 mRNA partial fragment	NW_015503911.1	82.639	144	21	2	1960	2100	16526138	16526280	3.06e-27	124
HoxD9 mRNA partial fragment	NW_015503911.1	74.251	167	35	8	1108	1270	16508110	16508272	6.76e-09	63.9
